tibbles-v001
…
# Tibbles show only the first 10 rows by default
# and only columns that fit on screen
health_data

# A tibble: 25 × 12
   patient_id admit_date   age heart_rate blood_pressure_sys
   <chr>      <date>     <int>      <dbl>              <dbl>
 1 P0001      2024-01-26    20         82                111
 2 P0002      2024-01-27    19         76                116
 3 P0003      2024-01-03    50         55                127
 4 P0004      2024-01-19    29         86                120
 5 P0005      2024-01-22    31         71                139
 6 P0006      2024-01-14    70         72                122
 7 P0007      2024-01-21    67         74                 89
 8 P0008      2024-01-25    78         66                127
 9 P0009      2024-01-02    69         92                114
10 P0010      2024-01-25    30         67                115
# ℹ 15 more rows
# ℹ 7 more variables: blood_pressure_dia <dbl>,
#   temperature <dbl>, oxygen_saturation <dbl>,
#   cholesterol <dbl>, glucose <dbl>, weight_kg <dbl>,
#   height_cm <dbl>
…
Printing More Rows/Columns of a Tibble

# By default, print() shows 10 rows. Use n= to show more rows
print(health_data, n = 20)  # Shows 20 rows

# A tibble: 25 × 12
   patient_id admit_date   age heart_rate blood_pressure_sys
   <chr>      <date>     <int>      <dbl>              <dbl>
 1 P0001      2024-01-26    20         82                111
 2 P0002      2024-01-27    19         76                116
 3 P0003      2024-01-03    50         55                127
 4 P0004      2024-01-19    29         86                120
 5 P0005      2024-01-22    31         71                139
 6 P0006      2024-01-14    70         72                122
 7 P0007      2024-01-21    67         74                 89
 8 P0008      2024-01-25    78         66                127
 9 P0009      2024-01-02    69         92                114
10 P0010      2024-01-25    30         67                115
11 P0011      2024-01-18    73         70                 96
12 P0012      2024-01-17    18         72                109
13 P0013      2024-01-17    47         62                102
14 P0014      2024-01-01    38         81                125
15 P0015      2024-01-19    33         97                164
16 P0016      2024-01-21    21         73                126
17 P0017      2024-01-25    35         82                135
18 P0018      2024-01-20    42         84                124
19 P0019      2024-01-26    33         60                115
20 P0020      2024-01-12    41         65                117
# ℹ 5 more rows
# ℹ 7 more variables: blood_pressure_dia <dbl>,
#   temperature <dbl>, oxygen_saturation <dbl>,
#   cholesterol <dbl>, glucose <dbl>, weight_kg <dbl>,
#   height_cm <dbl>
…
Controlling Column Width

# width argument to print specifies the number of characters that should
# be printed in the widest row. In effect, this limits the number of columns
# being output to those columns that fit in the specified width.
print(health_data, width = 75)

# A tibble: 25 × 12
   patient_id admit_date   age heart_rate blood_pressure_sys
   <chr>      <date>     <int>      <dbl>              <dbl>
 1 P0001      2024-01-26    20         82                111
 2 P0002      2024-01-27    19         76                116
 3 P0003      2024-01-03    50         55                127
 4 P0004      2024-01-19    29         86                120
 5 P0005      2024-01-22    31         71                139
 6 P0006      2024-01-14    70         72                122
 7 P0007      2024-01-21    67         74                 89
 8 P0008      2024-01-25    78         66                127
 9 P0009      2024-01-02    69         92                114
10 P0010      2024-01-25    30         67                115
# ℹ 15 more rows
# ℹ 7 more variables: blood_pressure_dia <dbl>, temperature <dbl>,
#   oxygen_saturation <dbl>, cholesterol <dbl>, glucose <dbl>,
#   weight_kg <dbl>, height_cm <dbl>

# Show all columns by setting width to Inf
print(health_data, width = Inf)

# A tibble: 25 × 12
   patient_id admit_date   age heart_rate blood_pressure_sys blood_pressure_dia temperature oxygen_saturation cholesterol glucose weight_kg height_cm
   <chr>      <date>     <int>      <dbl>              <dbl>              <dbl>       <dbl>             <dbl>       <dbl>   <dbl>     <dbl>     <dbl>
 1 P0001      2024-01-26    20         82                111                 87        97.9                97         200      89      48         162
 2 P0002      2024-01-27    19         76                116                 60        98.7                96         200      99      80.5       173
 3 P0003      2024-01-03    50         55                127                 77        98.3               101         130      86      73.5       162
 4 P0004      2024-01-19    29         86                120                 72        98.7               100         183      96      73.4       176
 5 P0005      2024-01-22    31         71                139                 78        99.1                95         255      92      95.1       163
 6 P0006      2024-01-14    70         72                122                 67        98.8                99         219     105      56.8       176
 7 P0007      2024-01-21    67         74                 89                 82        98.5                97         232     112      57.8       180
 8 P0008      2024-01-25    78         66                127                 90        98.8                98         167     121      75.9       172
 9 P0009      2024-01-02    69         92                114                 79        98.5               101         199      75      87.4       180
10 P0010      2024-01-25    30         67                115                 75        98.7               100         182     106      93.3       166
# ℹ 15 more rows
…
